^C:\USERS\GUILHERME\DOCUMENTS\VISUAL STUDIO 2012\PROJECTS\RTRLG - DUNGEON MASTER\DIRECTXTK\BIN\WINDOWSPHONE8\ARM\DEBUG\DIRECTXTK.LIB|C:\USERS\GUILHERME\DOCUMENTS\VISUAL STUDIO 2012\PROJECTS\RTRLG - DUNGEON MASTER\RTRLG - DUNGEON MASTER\ARM\DEBUG\DIRECT3DBASE.OBJ|C:\USERS\GUILHERME\DOCUMENTS\VISUAL STUDIO 2012\PROJECTS\RTRLG - DUNGEON MASTER\RTRLG - DUNGEON MASTER\ARM\DEBUG\GAMEFONT.OBJ|C:\USERS\GUILHERME\DOCUMENTS\VISUAL STUDIO 2012\PROJECTS\RTRLG - DUNGEON MASTER\RTRLG - DUNGEON MASTER\ARM\DEBUG\MAPTILE.OBJ|C:\USERS\GUILHERME\DOCUMENTS\VISUAL STUDIO 2012\PROJECTS\RTRLG - DUNGEON MASTER\RTRLG - DUNGEON MASTER\ARM\DEBUG\PCH.OBJ|C:\USERS\GUILHERME\DOCUMENTS\VISUAL STUDIO 2012\PROJECTS\RTRLG - DUNGEON MASTER\RTRLG - DUNGEON MASTER\ARM\DEBUG\RENDERER.OBJ|C:\USERS\GUILHERME\DOCUMENTS\VISUAL STUDIO 2012\PROJECTS\RTRLG - DUNGEON MASTER\RTRLG - DUNGEON MASTER\ARM\DEBUG\RTRLG - DUNGEON MASTER.OBJ|C:\USERS\GUILHERME\DOCUMENTS\VISUAL STUDIO 2012\PROJECTS\RTRLG - DUNGEON MASTER\RTRLG - DUNGEON MASTER\ARM\DEBUG\SCREENBASE.OBJ|C:\USERS\GUILHERME\DOCUMENTS\VISUAL STUDIO 2012\PROJECTS\RTRLG - DUNGEON MASTER\RTRLG - DUNGEON MASTER\ARM\DEBUG\SPRITEBASE.OBJ|C:\USERS\GUILHERME\DOCUMENTS\VISUAL STUDIO 2012\PROJECTS\RTRLG - DUNGEON MASTER\RTRLG - DUNGEON MASTER\ARM\DEBUG\TEXTUREDATABASE.OBJ
C:\PROGRAM FILES (X86)\WINDOWS PHONE KITS\8.0\LIB\ARM\D3D11.LIB
C:\PROGRAM FILES (X86)\WINDOWS PHONE KITS\8.0\LIB\ARM\DXGUID.LIB
C:\PROGRAM FILES (X86)\WINDOWS PHONE KITS\8.0\LIB\ARM\XAUDIO2.LIB
C:\PROGRAM FILES (X86)\WINDOWS PHONE KITS\8.0\LIB\ARM\WINDOWSPHONECORE.LIB
C:\PROGRAM FILES (X86)\WINDOWS PHONE KITS\8.0\LIB\ARM\RUNTIMEOBJECT.LIB
C:\PROGRAM FILES (X86)\WINDOWS PHONE KITS\8.0\LIB\ARM\PHONEAPPMODELHOST.LIB
C:\USERS\GUILHERME\DOCUMENTS\VISUAL STUDIO 2012\PROJECTS\RTRLG - DUNGEON MASTER\RTRLG - DUNGEON MASTER\ARM\DEBUG\GAMEFONT.OBJ
C:\USERS\GUILHERME\DOCUMENTS\VISUAL STUDIO 2012\PROJECTS\RTRLG - DUNGEON MASTER\RTRLG - DUNGEON MASTER\ARM\DEBUG\MAPTILE.OBJ
C:\USERS\GUILHERME\DOCUMENTS\VISUAL STUDIO 2012\PROJECTS\RTRLG - DUNGEON MASTER\RTRLG - DUNGEON MASTER\ARM\DEBUG\SCREENBASE.OBJ
C:\USERS\GUILHERME\DOCUMENTS\VISUAL STUDIO 2012\PROJECTS\RTRLG - DUNGEON MASTER\RTRLG - DUNGEON MASTER\ARM\DEBUG\SPRITEBASE.OBJ
C:\USERS\GUILHERME\DOCUMENTS\VISUAL STUDIO 2012\PROJECTS\RTRLG - DUNGEON MASTER\RTRLG - DUNGEON MASTER\ARM\DEBUG\RENDERER.OBJ
C:\USERS\GUILHERME\DOCUMENTS\VISUAL STUDIO 2012\PROJECTS\RTRLG - DUNGEON MASTER\RTRLG - DUNGEON MASTER\ARM\DEBUG\DIRECT3DBASE.OBJ
C:\USERS\GUILHERME\DOCUMENTS\VISUAL STUDIO 2012\PROJECTS\RTRLG - DUNGEON MASTER\RTRLG - DUNGEON MASTER\ARM\DEBUG\RTRLG - DUNGEON MASTER.OBJ
C:\USERS\GUILHERME\DOCUMENTS\VISUAL STUDIO 2012\PROJECTS\RTRLG - DUNGEON MASTER\RTRLG - DUNGEON MASTER\ARM\DEBUG\PCH.OBJ
C:\USERS\GUILHERME\DOCUMENTS\VISUAL STUDIO 2012\PROJECTS\RTRLG - DUNGEON MASTER\RTRLG - DUNGEON MASTER\ARM\DEBUG\TEXTUREDATABASE.OBJ
C:\USERS\GUILHERME\DOCUMENTS\VISUAL STUDIO 2012\PROJECTS\RTRLG - DUNGEON MASTER\DIRECTXTK\BIN\WINDOWSPHONE8\ARM\DEBUG\DIRECTXTK.LIB
C:\WINDOWS\SYSTEM32\TZRES.DLL
C:\WINDOWS\GLOBALIZATION\SORTING\SORTDEFAULT.NLS
C:\PROGRAM FILES (X86)\MICROSOFT VISUAL STUDIO 11.0\VC\WPSDK\WP80\LIB\ARM\VCCORLIBD.LIB
C:\PROGRAM FILES (X86)\WINDOWS PHONE KITS\8.0\LIB\ARM\UUID.LIB
C:\PROGRAM FILES (X86)\MICROSOFT VISUAL STUDIO 11.0\VC\WPSDK\WP80\LIB\ARM\MSVCPRTD.LIB
C:\PROGRAM FILES (X86)\MICROSOFT VISUAL STUDIO 11.0\VC\WPSDK\WP80\LIB\ARM\MSVCRTD.LIB
C:\PROGRAM FILES (X86)\MICROSOFT VISUAL STUDIO 11.0\VC\WPSDK\WP80\LIB\ARM\OLDNAMES.LIB
