^C:\USERS\GUILHERME\DOCUMENTS\VISUAL STUDIO 2012\PROJECTS\RTRLG - DUNGEON MASTER\RTRLG - DUNGEON MASTER\PCH.CPP
C:\USERS\GUILHERME\DOCUMENTS\VISUAL STUDIO 2012\PROJECTS\RTRLG - DUNGEON MASTER\RTRLG - DUNGEON MASTER\DEBUG\RTRLG - DUNGEON MASTER.PCH
C:\USERS\GUILHERME\DOCUMENTS\VISUAL STUDIO 2012\PROJECTS\RTRLG - DUNGEON MASTER\RTRLG - DUNGEON MASTER\DEBUG\PCH.OBJ
C:\USERS\GUILHERME\DOCUMENTS\VISUAL STUDIO 2012\PROJECTS\RTRLG - DUNGEON MASTER\RTRLG - DUNGEON MASTER\DEBUG\VC110.PDB
^C:\USERS\GUILHERME\DOCUMENTS\VISUAL STUDIO 2012\PROJECTS\RTRLG - DUNGEON MASTER\RTRLG - DUNGEON MASTER\DIRECT3DBASE.CPP|C:\USERS\GUILHERME\DOCUMENTS\VISUAL STUDIO 2012\PROJECTS\RTRLG - DUNGEON MASTER\RTRLG - DUNGEON MASTER\RENDERER.CPP|C:\USERS\GUILHERME\DOCUMENTS\VISUAL STUDIO 2012\PROJECTS\RTRLG - DUNGEON MASTER\RTRLG - DUNGEON MASTER\RTRLG - DUNGEON MASTER.CPP|C:\USERS\GUILHERME\DOCUMENTS\VISUAL STUDIO 2012\PROJECTS\RTRLG - DUNGEON MASTER\RTRLG - DUNGEON MASTER\SPRITEBASE.CPP
C:\USERS\GUILHERME\DOCUMENTS\VISUAL STUDIO 2012\PROJECTS\RTRLG - DUNGEON MASTER\RTRLG - DUNGEON MASTER\DEBUG\DIRECT3DBASE.OBJ
C:\USERS\GUILHERME\DOCUMENTS\VISUAL STUDIO 2012\PROJECTS\RTRLG - DUNGEON MASTER\RTRLG - DUNGEON MASTER\DEBUG\RENDERER.OBJ
C:\USERS\GUILHERME\DOCUMENTS\VISUAL STUDIO 2012\PROJECTS\RTRLG - DUNGEON MASTER\RTRLG - DUNGEON MASTER\DEBUG\SPRITEBASE.OBJ
C:\USERS\GUILHERME\DOCUMENTS\VISUAL STUDIO 2012\PROJECTS\RTRLG - DUNGEON MASTER\RTRLG - DUNGEON MASTER\DEBUG\RTRLG - DUNGEON MASTER.OBJ
^C:\USERS\GUILHERME\DOCUMENTS\VISUAL STUDIO 2012\PROJECTS\RTRLG - DUNGEON MASTER\RTRLG - DUNGEON MASTER\DIRECT3DBASE.CPP
C:\USERS\GUILHERME\DOCUMENTS\VISUAL STUDIO 2012\PROJECTS\RTRLG - DUNGEON MASTER\RTRLG - DUNGEON MASTER\DEBUG\VC110.PDB
^C:\USERS\GUILHERME\DOCUMENTS\VISUAL STUDIO 2012\PROJECTS\RTRLG - DUNGEON MASTER\RTRLG - DUNGEON MASTER\RENDERER.CPP|C:\USERS\GUILHERME\DOCUMENTS\VISUAL STUDIO 2012\PROJECTS\RTRLG - DUNGEON MASTER\RTRLG - DUNGEON MASTER\SPRITEBASE.CPP
C:\USERS\GUILHERME\DOCUMENTS\VISUAL STUDIO 2012\PROJECTS\RTRLG - DUNGEON MASTER\RTRLG - DUNGEON MASTER\DEBUG\SPRITEBASE.OBJ
C:\USERS\GUILHERME\DOCUMENTS\VISUAL STUDIO 2012\PROJECTS\RTRLG - DUNGEON MASTER\RTRLG - DUNGEON MASTER\DEBUG\RENDERER.OBJ
^C:\USERS\GUILHERME\DOCUMENTS\VISUAL STUDIO 2012\PROJECTS\RTRLG - DUNGEON MASTER\RTRLG - DUNGEON MASTER\RENDERER.CPP|C:\USERS\GUILHERME\DOCUMENTS\VISUAL STUDIO 2012\PROJECTS\RTRLG - DUNGEON MASTER\RTRLG - DUNGEON MASTER\RTRLG - DUNGEON MASTER.CPP|C:\USERS\GUILHERME\DOCUMENTS\VISUAL STUDIO 2012\PROJECTS\RTRLG - DUNGEON MASTER\RTRLG - DUNGEON MASTER\SPRITEBASE.CPP
C:\USERS\GUILHERME\DOCUMENTS\VISUAL STUDIO 2012\PROJECTS\RTRLG - DUNGEON MASTER\RTRLG - DUNGEON MASTER\DEBUG\RTRLG - DUNGEON MASTER.OBJ
C:\USERS\GUILHERME\DOCUMENTS\VISUAL STUDIO 2012\PROJECTS\RTRLG - DUNGEON MASTER\RTRLG - DUNGEON MASTER\DEBUG\RENDERER.OBJ
C:\USERS\GUILHERME\DOCUMENTS\VISUAL STUDIO 2012\PROJECTS\RTRLG - DUNGEON MASTER\RTRLG - DUNGEON MASTER\DEBUG\SPRITEBASE.OBJ
^C:\USERS\GUILHERME\DOCUMENTS\VISUAL STUDIO 2012\PROJECTS\RTRLG - DUNGEON MASTER\RTRLG - DUNGEON MASTER\GAMEFONT.CPP|C:\USERS\GUILHERME\DOCUMENTS\VISUAL STUDIO 2012\PROJECTS\RTRLG - DUNGEON MASTER\RTRLG - DUNGEON MASTER\MAPTILE.CPP|C:\USERS\GUILHERME\DOCUMENTS\VISUAL STUDIO 2012\PROJECTS\RTRLG - DUNGEON MASTER\RTRLG - DUNGEON MASTER\RENDERER.CPP|C:\USERS\GUILHERME\DOCUMENTS\VISUAL STUDIO 2012\PROJECTS\RTRLG - DUNGEON MASTER\RTRLG - DUNGEON MASTER\RTRLG - DUNGEON MASTER.CPP
C:\USERS\GUILHERME\DOCUMENTS\VISUAL STUDIO 2012\PROJECTS\RTRLG - DUNGEON MASTER\RTRLG - DUNGEON MASTER\DEBUG\RTRLG - DUNGEON MASTER.OBJ
C:\USERS\GUILHERME\DOCUMENTS\VISUAL STUDIO 2012\PROJECTS\RTRLG - DUNGEON MASTER\RTRLG - DUNGEON MASTER\DEBUG\RENDERER.OBJ
C:\USERS\GUILHERME\DOCUMENTS\VISUAL STUDIO 2012\PROJECTS\RTRLG - DUNGEON MASTER\RTRLG - DUNGEON MASTER\DEBUG\MAPTILE.OBJ
^C:\USERS\GUILHERME\DOCUMENTS\VISUAL STUDIO 2012\PROJECTS\RTRLG - DUNGEON MASTER\RTRLG - DUNGEON MASTER\GAMEFONT.CPP|C:\USERS\GUILHERME\DOCUMENTS\VISUAL STUDIO 2012\PROJECTS\RTRLG - DUNGEON MASTER\RTRLG - DUNGEON MASTER\RENDERER.CPP|C:\USERS\GUILHERME\DOCUMENTS\VISUAL STUDIO 2012\PROJECTS\RTRLG - DUNGEON MASTER\RTRLG - DUNGEON MASTER\RTRLG - DUNGEON MASTER.CPP
C:\USERS\GUILHERME\DOCUMENTS\VISUAL STUDIO 2012\PROJECTS\RTRLG - DUNGEON MASTER\RTRLG - DUNGEON MASTER\DEBUG\RTRLG - DUNGEON MASTER.OBJ
C:\USERS\GUILHERME\DOCUMENTS\VISUAL STUDIO 2012\PROJECTS\RTRLG - DUNGEON MASTER\RTRLG - DUNGEON MASTER\DEBUG\RENDERER.OBJ
C:\USERS\GUILHERME\DOCUMENTS\VISUAL STUDIO 2012\PROJECTS\RTRLG - DUNGEON MASTER\RTRLG - DUNGEON MASTER\DEBUG\GAMEFONT.OBJ
^C:\USERS\GUILHERME\DOCUMENTS\VISUAL STUDIO 2012\PROJECTS\RTRLG - DUNGEON MASTER\RTRLG - DUNGEON MASTER\GAMEFONT.CPP
C:\USERS\GUILHERME\DOCUMENTS\VISUAL STUDIO 2012\PROJECTS\RTRLG - DUNGEON MASTER\RTRLG - DUNGEON MASTER\DEBUG\VC110.PDB
^C:\USERS\GUILHERME\DOCUMENTS\VISUAL STUDIO 2012\PROJECTS\RTRLG - DUNGEON MASTER\RTRLG - DUNGEON MASTER\RENDERER.CPP|C:\USERS\GUILHERME\DOCUMENTS\VISUAL STUDIO 2012\PROJECTS\RTRLG - DUNGEON MASTER\RTRLG - DUNGEON MASTER\SCREENBASE.CPP
C:\USERS\GUILHERME\DOCUMENTS\VISUAL STUDIO 2012\PROJECTS\RTRLG - DUNGEON MASTER\RTRLG - DUNGEON MASTER\DEBUG\SCREENBASE.OBJ
C:\USERS\GUILHERME\DOCUMENTS\VISUAL STUDIO 2012\PROJECTS\RTRLG - DUNGEON MASTER\RTRLG - DUNGEON MASTER\DEBUG\RENDERER.OBJ
^C:\USERS\GUILHERME\DOCUMENTS\VISUAL STUDIO 2012\PROJECTS\RTRLG - DUNGEON MASTER\RTRLG - DUNGEON MASTER\SCREENBASE.CPP
C:\USERS\GUILHERME\DOCUMENTS\VISUAL STUDIO 2012\PROJECTS\RTRLG - DUNGEON MASTER\RTRLG - DUNGEON MASTER\DEBUG\VC110.PDB
^C:\USERS\GUILHERME\DOCUMENTS\VISUAL STUDIO 2012\PROJECTS\RTRLG - DUNGEON MASTER\RTRLG - DUNGEON MASTER\MAPTILE.CPP|C:\USERS\GUILHERME\DOCUMENTS\VISUAL STUDIO 2012\PROJECTS\RTRLG - DUNGEON MASTER\RTRLG - DUNGEON MASTER\RENDERER.CPP
C:\USERS\GUILHERME\DOCUMENTS\VISUAL STUDIO 2012\PROJECTS\RTRLG - DUNGEON MASTER\RTRLG - DUNGEON MASTER\DEBUG\MAPTILE.OBJ
C:\USERS\GUILHERME\DOCUMENTS\VISUAL STUDIO 2012\PROJECTS\RTRLG - DUNGEON MASTER\RTRLG - DUNGEON MASTER\DEBUG\RENDERER.OBJ
^C:\USERS\GUILHERME\DOCUMENTS\VISUAL STUDIO 2012\PROJECTS\RTRLG - DUNGEON MASTER\RTRLG - DUNGEON MASTER\MAPTILE.CPP|C:\USERS\GUILHERME\DOCUMENTS\VISUAL STUDIO 2012\PROJECTS\RTRLG - DUNGEON MASTER\RTRLG - DUNGEON MASTER\RENDERER.CPP|C:\USERS\GUILHERME\DOCUMENTS\VISUAL STUDIO 2012\PROJECTS\RTRLG - DUNGEON MASTER\RTRLG - DUNGEON MASTER\RTRLG - DUNGEON MASTER.CPP|C:\USERS\GUILHERME\DOCUMENTS\VISUAL STUDIO 2012\PROJECTS\RTRLG - DUNGEON MASTER\RTRLG - DUNGEON MASTER\SPRITEBASE.CPP|C:\USERS\GUILHERME\DOCUMENTS\VISUAL STUDIO 2012\PROJECTS\RTRLG - DUNGEON MASTER\RTRLG - DUNGEON MASTER\TEXTUREDATABASE.CPP
C:\USERS\GUILHERME\DOCUMENTS\VISUAL STUDIO 2012\PROJECTS\RTRLG - DUNGEON MASTER\RTRLG - DUNGEON MASTER\DEBUG\RTRLG - DUNGEON MASTER.OBJ
C:\USERS\GUILHERME\DOCUMENTS\VISUAL STUDIO 2012\PROJECTS\RTRLG - DUNGEON MASTER\RTRLG - DUNGEON MASTER\DEBUG\SPRITEBASE.OBJ
C:\USERS\GUILHERME\DOCUMENTS\VISUAL STUDIO 2012\PROJECTS\RTRLG - DUNGEON MASTER\RTRLG - DUNGEON MASTER\DEBUG\RENDERER.OBJ
C:\USERS\GUILHERME\DOCUMENTS\VISUAL STUDIO 2012\PROJECTS\RTRLG - DUNGEON MASTER\RTRLG - DUNGEON MASTER\DEBUG\MAPTILE.OBJ
C:\USERS\GUILHERME\DOCUMENTS\VISUAL STUDIO 2012\PROJECTS\RTRLG - DUNGEON MASTER\RTRLG - DUNGEON MASTER\DEBUG\TEXTUREDATABASE.OBJ
^C:\USERS\GUILHERME\DOCUMENTS\VISUAL STUDIO 2012\PROJECTS\RTRLG - DUNGEON MASTER\RTRLG - DUNGEON MASTER\MAPTILE.CPP|C:\USERS\GUILHERME\DOCUMENTS\VISUAL STUDIO 2012\PROJECTS\RTRLG - DUNGEON MASTER\RTRLG - DUNGEON MASTER\RENDERER.CPP|C:\USERS\GUILHERME\DOCUMENTS\VISUAL STUDIO 2012\PROJECTS\RTRLG - DUNGEON MASTER\RTRLG - DUNGEON MASTER\RTRLG - DUNGEON MASTER.CPP|C:\USERS\GUILHERME\DOCUMENTS\VISUAL STUDIO 2012\PROJECTS\RTRLG - DUNGEON MASTER\RTRLG - DUNGEON MASTER\TEXTUREDATABASE.CPP
C:\USERS\GUILHERME\DOCUMENTS\VISUAL STUDIO 2012\PROJECTS\RTRLG - DUNGEON MASTER\RTRLG - DUNGEON MASTER\DEBUG\RENDERER.OBJ
C:\USERS\GUILHERME\DOCUMENTS\VISUAL STUDIO 2012\PROJECTS\RTRLG - DUNGEON MASTER\RTRLG - DUNGEON MASTER\DEBUG\MAPTILE.OBJ
C:\USERS\GUILHERME\DOCUMENTS\VISUAL STUDIO 2012\PROJECTS\RTRLG - DUNGEON MASTER\RTRLG - DUNGEON MASTER\DEBUG\RTRLG - DUNGEON MASTER.OBJ
C:\USERS\GUILHERME\DOCUMENTS\VISUAL STUDIO 2012\PROJECTS\RTRLG - DUNGEON MASTER\RTRLG - DUNGEON MASTER\DEBUG\TEXTUREDATABASE.OBJ
^C:\USERS\GUILHERME\DOCUMENTS\VISUAL STUDIO 2012\PROJECTS\RTRLG - DUNGEON MASTER\RTRLG - DUNGEON MASTER\RENDERER.CPP|C:\USERS\GUILHERME\DOCUMENTS\VISUAL STUDIO 2012\PROJECTS\RTRLG - DUNGEON MASTER\RTRLG - DUNGEON MASTER\RTRLG - DUNGEON MASTER.CPP
C:\USERS\GUILHERME\DOCUMENTS\VISUAL STUDIO 2012\PROJECTS\RTRLG - DUNGEON MASTER\RTRLG - DUNGEON MASTER\DEBUG\RTRLG - DUNGEON MASTER.OBJ
C:\USERS\GUILHERME\DOCUMENTS\VISUAL STUDIO 2012\PROJECTS\RTRLG - DUNGEON MASTER\RTRLG - DUNGEON MASTER\DEBUG\RENDERER.OBJ
^C:\USERS\GUILHERME\DOCUMENTS\VISUAL STUDIO 2012\PROJECTS\RTRLG - DUNGEON MASTER\RTRLG - DUNGEON MASTER\MAPTILE.CPP|C:\USERS\GUILHERME\DOCUMENTS\VISUAL STUDIO 2012\PROJECTS\RTRLG - DUNGEON MASTER\RTRLG - DUNGEON MASTER\RENDERER.CPP|C:\USERS\GUILHERME\DOCUMENTS\VISUAL STUDIO 2012\PROJECTS\RTRLG - DUNGEON MASTER\RTRLG - DUNGEON MASTER\RTRLG - DUNGEON MASTER.CPP|C:\USERS\GUILHERME\DOCUMENTS\VISUAL STUDIO 2012\PROJECTS\RTRLG - DUNGEON MASTER\RTRLG - DUNGEON MASTER\SPRITEBASE.CPP
C:\USERS\GUILHERME\DOCUMENTS\VISUAL STUDIO 2012\PROJECTS\RTRLG - DUNGEON MASTER\RTRLG - DUNGEON MASTER\DEBUG\SPRITEBASE.OBJ
C:\USERS\GUILHERME\DOCUMENTS\VISUAL STUDIO 2012\PROJECTS\RTRLG - DUNGEON MASTER\RTRLG - DUNGEON MASTER\DEBUG\RTRLG - DUNGEON MASTER.OBJ
C:\USERS\GUILHERME\DOCUMENTS\VISUAL STUDIO 2012\PROJECTS\RTRLG - DUNGEON MASTER\RTRLG - DUNGEON MASTER\DEBUG\RENDERER.OBJ
C:\USERS\GUILHERME\DOCUMENTS\VISUAL STUDIO 2012\PROJECTS\RTRLG - DUNGEON MASTER\RTRLG - DUNGEON MASTER\DEBUG\MAPTILE.OBJ
^C:\USERS\GUILHERME\DOCUMENTS\VISUAL STUDIO 2012\PROJECTS\RTRLG - DUNGEON MASTER\RTRLG - DUNGEON MASTER\MAPTILE.CPP
C:\USERS\GUILHERME\DOCUMENTS\VISUAL STUDIO 2012\PROJECTS\RTRLG - DUNGEON MASTER\RTRLG - DUNGEON MASTER\DEBUG\VC110.PDB
^C:\USERS\GUILHERME\DOCUMENTS\VISUAL STUDIO 2012\PROJECTS\RTRLG - DUNGEON MASTER\RTRLG - DUNGEON MASTER\RTRLG - DUNGEON MASTER.CPP
C:\USERS\GUILHERME\DOCUMENTS\VISUAL STUDIO 2012\PROJECTS\RTRLG - DUNGEON MASTER\RTRLG - DUNGEON MASTER\DEBUG\VC110.PDB
^C:\USERS\GUILHERME\DOCUMENTS\VISUAL STUDIO 2012\PROJECTS\RTRLG - DUNGEON MASTER\RTRLG - DUNGEON MASTER\RENDERER.CPP|C:\USERS\GUILHERME\DOCUMENTS\VISUAL STUDIO 2012\PROJECTS\RTRLG - DUNGEON MASTER\RTRLG - DUNGEON MASTER\SPRITEBASE.CPP|C:\USERS\GUILHERME\DOCUMENTS\VISUAL STUDIO 2012\PROJECTS\RTRLG - DUNGEON MASTER\RTRLG - DUNGEON MASTER\TEXTUREDATABASE.CPP
C:\USERS\GUILHERME\DOCUMENTS\VISUAL STUDIO 2012\PROJECTS\RTRLG - DUNGEON MASTER\RTRLG - DUNGEON MASTER\DEBUG\TEXTUREDATABASE.OBJ
C:\USERS\GUILHERME\DOCUMENTS\VISUAL STUDIO 2012\PROJECTS\RTRLG - DUNGEON MASTER\RTRLG - DUNGEON MASTER\DEBUG\SPRITEBASE.OBJ
C:\USERS\GUILHERME\DOCUMENTS\VISUAL STUDIO 2012\PROJECTS\RTRLG - DUNGEON MASTER\RTRLG - DUNGEON MASTER\DEBUG\RENDERER.OBJ
^C:\USERS\GUILHERME\DOCUMENTS\VISUAL STUDIO 2012\PROJECTS\RTRLG - DUNGEON MASTER\RTRLG - DUNGEON MASTER\SPRITEBASE.CPP
C:\USERS\GUILHERME\DOCUMENTS\VISUAL STUDIO 2012\PROJECTS\RTRLG - DUNGEON MASTER\RTRLG - DUNGEON MASTER\DEBUG\VC110.PDB
^C:\USERS\GUILHERME\DOCUMENTS\VISUAL STUDIO 2012\PROJECTS\RTRLG - DUNGEON MASTER\RTRLG - DUNGEON MASTER\TEXTUREDATABASE.CPP
C:\USERS\GUILHERME\DOCUMENTS\VISUAL STUDIO 2012\PROJECTS\RTRLG - DUNGEON MASTER\RTRLG - DUNGEON MASTER\DEBUG\VC110.PDB
^C:\USERS\GUILHERME\DOCUMENTS\VISUAL STUDIO 2012\PROJECTS\RTRLG - DUNGEON MASTER\RTRLG - DUNGEON MASTER\RENDERER.CPP
C:\USERS\GUILHERME\DOCUMENTS\VISUAL STUDIO 2012\PROJECTS\RTRLG - DUNGEON MASTER\RTRLG - DUNGEON MASTER\DEBUG\RENDERER.OBJ
C:\USERS\GUILHERME\DOCUMENTS\VISUAL STUDIO 2012\PROJECTS\RTRLG - DUNGEON MASTER\RTRLG - DUNGEON MASTER\DEBUG\VC110.PDB
